%YAML 1.1
%TAG !u! tag:unity3d.com,2011:
--- !u!1001 &2699411490501158477
PrefabInstance:
  m_ObjectHideFlags: 0
  serializedVersion: 2
  m_Modification:
    m_TransformParent: {fileID: 0}
    m_Modifications:
    - target: {fileID: 4606156054432476864, guid: f69b98b0a7db8824e8c9d93063d6894d,
        type: 3}
      propertyPath: m_Name
      value: ItemDay
      objectReference: {fileID: 0}
    - target: {fileID: 7732801331958594933, guid: f69b98b0a7db8824e8c9d93063d6894d,
        type: 3}
      propertyPath: m_LocalPosition.x
      value: 0
      objectReference: {fileID: 0}
    - target: {fileID: 7732801331958594933, guid: f69b98b0a7db8824e8c9d93063d6894d,
        type: 3}
      propertyPath: m_LocalPosition.y
      value: 0
      objectReference: {fileID: 0}
    - target: {fileID: 7732801331958594933, guid: f69b98b0a7db8824e8c9d93063d6894d,
        type: 3}
      propertyPath: m_LocalPosition.z
      value: 0
      objectReference: {fileID: 0}
    - target: {fileID: 7732801331958594933, guid: f69b98b0a7db8824e8c9d93063d6894d,
        type: 3}
      propertyPath: m_LocalRotation.x
      value: -0
      objectReference: {fileID: 0}
    - target: {fileID: 7732801331958594933, guid: f69b98b0a7db8824e8c9d93063d6894d,
        type: 3}
      propertyPath: m_LocalRotation.y
      value: -0
      objectReference: {fileID: 0}
    - target: {fileID: 7732801331958594933, guid: f69b98b0a7db8824e8c9d93063d6894d,
        type: 3}
      propertyPath: m_LocalRotation.z
      value: -0
      objectReference: {fileID: 0}
    - target: {fileID: 7732801331958594933, guid: f69b98b0a7db8824e8c9d93063d6894d,
        type: 3}
      propertyPath: m_LocalRotation.w
      value: 1
      objectReference: {fileID: 0}
    - target: {fileID: 7732801331958594933, guid: f69b98b0a7db8824e8c9d93063d6894d,
        type: 3}
      propertyPath: m_RootOrder
      value: 0
      objectReference: {fileID: 0}
    - target: {fileID: 7732801331958594933, guid: f69b98b0a7db8824e8c9d93063d6894d,
        type: 3}
      propertyPath: m_LocalEulerAnglesHint.x
      value: 0
      objectReference: {fileID: 0}
    - target: {fileID: 7732801331958594933, guid: f69b98b0a7db8824e8c9d93063d6894d,
        type: 3}
      propertyPath: m_LocalEulerAnglesHint.y
      value: 0
      objectReference: {fileID: 0}
    - target: {fileID: 7732801331958594933, guid: f69b98b0a7db8824e8c9d93063d6894d,
        type: 3}
      propertyPath: m_LocalEulerAnglesHint.z
      value: 0
      objectReference: {fileID: 0}
    - target: {fileID: 7732801331958594933, guid: f69b98b0a7db8824e8c9d93063d6894d,
        type: 3}
      propertyPath: m_AnchoredPosition.x
      value: 0
      objectReference: {fileID: 0}
    - target: {fileID: 7732801331958594933, guid: f69b98b0a7db8824e8c9d93063d6894d,
        type: 3}
      propertyPath: m_AnchoredPosition.y
      value: 0
      objectReference: {fileID: 0}
    - target: {fileID: 7732801331958594933, guid: f69b98b0a7db8824e8c9d93063d6894d,
        type: 3}
      propertyPath: m_SizeDelta.x
      value: 300
      objectReference: {fileID: 0}
    - target: {fileID: 7732801331958594933, guid: f69b98b0a7db8824e8c9d93063d6894d,
        type: 3}
      propertyPath: m_SizeDelta.y
      value: 300
      objectReference: {fileID: 0}
    - target: {fileID: 7732801331958594933, guid: f69b98b0a7db8824e8c9d93063d6894d,
        type: 3}
      propertyPath: m_AnchorMin.x
      value: 0.5
      objectReference: {fileID: 0}
    - target: {fileID: 7732801331958594933, guid: f69b98b0a7db8824e8c9d93063d6894d,
        type: 3}
      propertyPath: m_AnchorMin.y
      value: 0.5
      objectReference: {fileID: 0}
    - target: {fileID: 7732801331958594933, guid: f69b98b0a7db8824e8c9d93063d6894d,
        type: 3}
      propertyPath: m_AnchorMax.x
      value: 0.5
      objectReference: {fileID: 0}
    - target: {fileID: 7732801331958594933, guid: f69b98b0a7db8824e8c9d93063d6894d,
        type: 3}
      propertyPath: m_AnchorMax.y
      value: 0.5
      objectReference: {fileID: 0}
    - target: {fileID: 7732801331958594933, guid: f69b98b0a7db8824e8c9d93063d6894d,
        type: 3}
      propertyPath: m_Pivot.x
      value: 0.5
      objectReference: {fileID: 0}
    - target: {fileID: 7732801331958594933, guid: f69b98b0a7db8824e8c9d93063d6894d,
        type: 3}
      propertyPath: m_Pivot.y
      value: 0.5
      objectReference: {fileID: 0}
    m_RemovedComponents: []
  m_SourcePrefab: {fileID: 100100000, guid: f69b98b0a7db8824e8c9d93063d6894d, type: 3}
